{"data":[{"id":742,"name":"Abu Dhabi, AEAUH","country":"United Arab Emirates","continent":"AS","coordinates":"24.4821 54.502135"},{"id":743,"name":"Ajman, AEAJM","country":"United Arab Emirates","continent":"AS","coordinates":"25.41093 55.4573"},{"id":744,"name":"Fujairah, AEFJR","country":"United Arab Emirates","continent":"AS","coordinates":"25.12769 56.356"},{"id":745,"name":"Jebel Ali, AEJEA","country":"United Arab Emirates","continent":"AS","coordinates":"25.00063 55.0493"},{"id":746,"name":"Sharjah, AESHJ","country":"United Arab Emirates","continent":"AS","coordinates":"25.36711 55.38845"},{"id":747,"name":"KHOR AL FAKKAN, AEKLF","country":"United Arab Emirates","continent":"AS","coordinates":"25.34523 56.37061"},{"id":748,"name":"RAS AL KHAIMAH, AERKT","country":"United Arab Emirates","continent":"AS","coordinates":"25.79233 55.9461"},{"id":749,"name":"UMM AL QAIWAIN, AEQIW","country":"United Arab Emirates","continent":"AS","coordinates":null},{"id":750,"name":"ANTIGUA, AGANU","country":"Antigua and Barbuda","continent":"NA","coordinates":"17.01175 -61.773625"},{"id":751,"name":"DURRES, ALDRZ","country":"Albania","continent":"EU","coordinates":"41.30761 19.45881"},{"id":752,"name":"LOBITO, AOLOB","country":"Angola","continent":"AF","coordinates":"-12.35887 13.5425"},{"id":753,"name":"LUANDA, AOLAD","country":"Angola","continent":"AF","coordinates":"-8.80407 13.2333"},{"id":754,"name":"NAMIBE, AOMSZ","country":"Angola","continent":"AF","coordinates":"-15.19487 12.1411"},{"id":755,"name":"BAHIA BLANCA, ARBHI","country":"Argentina","continent":"SA","coordinates":"-38.75997 -62.3498"},{"id":756,"name":"Buenos Aires, ARBUE","country":"Argentina","continent":"SA","coordinates":"-34.60257 -58.3747"},{"id":757,"name":"CORRIENTES, ARCNQ","country":"Argentina","continent":"SA","coordinates":"-27.49377 -58.8516"},{"id":758,"name":"LAS PALMAS, ARLPS","country":"Argentina","continent":"SA","coordinates":"-34.019905 -59.12787"},{"id":759,"name":"MAR DEL PLATA, ARMDQ","country":"Argentina","continent":"SA","coordinates":"-38.00017 -57.5475"},{"id":760,"name":"PUERTO DESEADO, ARPUD","country":"Argentina","continent":"SA","coordinates":"-47.74737 -65.8929"},{"id":761,"name":"PUERTO MADRYN, ARPMY","country":"Argentina","continent":"SA","coordinates":"-42.77377 -65.0281"},{"id":762,"name":"ROSARIO, ARROS","country":"Argentina","continent":"SA","coordinates":"-32.93957 -60.6396"},{"id":764,"name":"USHUAIA, ARUSH","country":"Argentina","continent":"SA","coordinates":"-54.80327 -68.2984"},{"id":765,"name":"VILLA CONSTITUCION, ARVCN","country":"Argentina","continent":"SA","coordinates":"-33.23447 -60.3155"},{"id":766,"name":"ZARATE, ARZAE","country":"Argentina","continent":"SA","coordinates":"-34.08147 -59.0348"},{"id":767,"name":"PAGO PAGO, ASPPG","country":"American Samoa","continent":"OC","coordinates":"-14.28117 -170.6909"},{"id":768,"name":"Adelaide, AUADL","country":"Australia","continent":"OC","coordinates":"-34.80684 138.5082"},{"id":769,"name":"Bell Bay, AUBEL","country":"Australia","continent":"OC","coordinates":"-41.18997 146.8423"},{"id":770,"name":"Brisbane, AUBNE","country":"Australia","continent":"OC","coordinates":"-27.47127 153.0149"},{"id":771,"name":"Fremantle, AUFRE","country":"Australia","continent":"OC","coordinates":"-32.09837 115.7599"},{"id":772,"name":"Melbourne, AUMEL","country":"Australia","continent":"OC","coordinates":"-37.82427 144.9465"},{"id":773,"name":"Sydney, AUSYD","country":"Australia","continent":"OC","coordinates":"-33.851505 151.19885"},{"id":774,"name":"Townsville, AUTSV","country":"Australia","continent":"OC","coordinates":"-19.26207 146.8231"},{"id":775,"name":"ESPERANCE, AUEPR","country":"Australia","continent":"OC","coordinates":"-33.86507 121.8957"},{"id":776,"name":"BRIDGETOWN, BBBGI","country":"Barbados","continent":"NA","coordinates":"13.09953 -59.625"},{"id":777,"name":"Chittagong, BDCGP","country":"Bangladesh","continent":"AS","coordinates":"22.31373 91.8195"},{"id":778,"name":"MONGLA, BDMGL","country":"Bangladesh","continent":"AS","coordinates":"22.47873 89.5967"},{"id":779,"name":"Antwerp, BEANR","country":"Belgium","continent":"EU","coordinates":"51.21353 4.3865"},{"id":780,"name":"ZEEBRUGGE, BEZEE","country":"Belgium","continent":"EU","coordinates":"51.33723 3.1979"},{"id":781,"name":"Burgas, BGBOJ","country":"Bulgaria","continent":"EU","coordinates":"42.49453 27.4773"},{"id":782,"name":"Varna, BGVAR","country":"Bulgaria","continent":"EU","coordinates":"43.193825 27.91081"},{"id":783,"name":"Bahrain, BHKBS","country":"Bahrain","continent":"AS","coordinates":"26.19784 50.71145"},{"id":784,"name":"COTONOU, BJCOO","country":"Benin","continent":"AF","coordinates":"6.35532 2.4566"},{"id":785,"name":"BELEM, BRBEL","country":"Brazil","continent":"SA","coordinates":"-1.44347 -48.5079"},{"id":786,"name":"ITAJAI, BRITJ","country":"Brazil","continent":"SA","coordinates":"-26.90537 -48.655"},{"id":787,"name":"ITAPOA, BRIOA","country":"Brazil","continent":"SA","coordinates":"-26.184 -48.6026"},{"id":788,"name":"MANAUS, BRMAO","country":"Brazil","continent":"SA","coordinates":"-3.13247 -60.0193"},{"id":789,"name":"NAVEGANTES, BRNVT","country":"Brazil","continent":"SA","coordinates":"-26.897025 -48.66268"},{"id":790,"name":"PARANAGUA, BRPNG","country":"Brazil","continent":"SA","coordinates":"-25.50747 -48.508"},{"id":791,"name":"PECEM, BRPEC","country":"Brazil","continent":"SA","coordinates":"-3.532126 -38.80311"},{"id":792,"name":"PORTO VELHO, BRPVH","country":"Brazil","continent":"SA","coordinates":"-8.76497 -63.9184"},{"id":793,"name":"RIO DE JANEIRO, BRRIO","country":"Brazil","continent":"SA","coordinates":"-22.89687 -43.2041"},{"id":794,"name":"RIO GRANDE, BRRIG","country":"Brazil","continent":"SA","coordinates":"-32.05147 -52.0815"},{"id":795,"name":"SALVADOR, BRSSA","country":"Brazil","continent":"SA","coordinates":"-12.93997 -38.4939"},{"id":796,"name":"SANTAREM, BRSTM","country":"Brazil","continent":"SA","coordinates":"-2.4158 -54.729"},{"id":797,"name":"SANTOS, BRSSZ","country":"Brazil","continent":"SA","coordinates":"-23.92767 -46.3069"},{"id":798,"name":"SUAPE, BRSUA","country":"Brazil","continent":"SA","coordinates":"-8.39767 -34.9578"},{"id":799,"name":"VILA DO CONDE, BRVLC","country":"Brazil","continent":"SA","coordinates":"-1.534438 -48.743"},{"id":800,"name":"VITORIA BR, BRVIX","country":"Brazil","continent":"SA","coordinates":"-20.32817 -40.3459"},{"id":801,"name":"Freeport, BSFPO","country":"Bahamas","continent":"NA","coordinates":"26.51503 -78.6324"},{"id":802,"name":"NASSAU, BSNAS","country":"Bahamas","continent":"NA","coordinates":"25.07713 -77.3337"},{"id":803,"name":"BELIZE CITY, BZBZE","country":"Belize","continent":"NA","coordinates":"17.48543 -88.1849"},{"id":804,"name":"MONTREAL, CAMTR","country":"Canada","continent":"NA","coordinates":"45.50173 -73.5481"},{"id":805,"name":"PRINCE RUPERT, CAPRR","country":"Canada","continent":"NA","coordinates":"54.32193 -130.2978"},{"id":806,"name":"SAINT JOHN, CASJB","country":"Canada","continent":"NA","coordinates":"45.26353 -66.0606"},{"id":807,"name":"VANCOUVER, CAVAN","country":"Canada","continent":"NA","coordinates":"49.28383 -123.1084"},{"id":808,"name":"ABIDJAN, CIABJ","country":"C\u00f4te d'Ivoire","continent":"AF","coordinates":"5.2983915 -4.01993"},{"id":809,"name":"SAN-PEDRO, CISPY","country":"C\u00f4te d'Ivoire","continent":"AF","coordinates":"4.743 -6.615"},{"id":810,"name":"RAROTONGA, CKRAR","country":"Cook Islands","continent":"OC","coordinates":"-21.20418 -159.7844"},{"id":811,"name":"Arica, CLARI","country":"Chile","continent":"SA","coordinates":"-18.48247 -70.3283"},{"id":812,"name":"Iquique, CLIQQ","country":"Chile","continent":"SA","coordinates":"-20.20607 -70.1474"},{"id":813,"name":"San Antonio, CLSAI","country":"Chile","continent":"SA","coordinates":"-33.58947 -71.6118"},{"id":814,"name":"San Vicente, CLSVE","country":"Chile","continent":"SA","coordinates":"-36.72857 -73.1296"},{"id":815,"name":"CORONEL, CLCNL","country":"Chile","continent":"SA","coordinates":"-37.02957 -73.1603"},{"id":816,"name":"LIRQUEN, CLLQN","country":"Chile","continent":"SA","coordinates":"-36.69987 -72.9802"},{"id":817,"name":"PUERTO ANGAMOS, CLPAG","country":"Chile","continent":"SA","coordinates":null},{"id":818,"name":"VALPARAISO, CLVAP","country":"Chile","continent":"SA","coordinates":"-33.03667 -71.6331"},{"id":819,"name":"DOUALA, CMDLA","country":"Cameroon","continent":"AF","coordinates":"4.05673 9.6933"},{"id":820,"name":"Anqing, CNAQG","country":"China","continent":"AS","coordinates":"30.49393 117.0393"},{"id":821,"name":"Beihai, CNBHY","country":"China","continent":"AS","coordinates":"21.48393 109.0811"},{"id":822,"name":"Beijiao, CNBIJ","country":"China","continent":"AS","coordinates":null},{"id":823,"name":"Changsha, CNCSH","country":"China","continent":"AS","coordinates":null},{"id":824,"name":"Changshu, CNCGS","country":"China","continent":"AS","coordinates":"#N\/A"},{"id":825,"name":"Changzhou, CNCZX","country":"China","continent":"AS","coordinates":"31.97386 119.99595"},{"id":826,"name":"Chongqing, CNCQI","country":"China","continent":"AS","coordinates":"29.56956 106.60535"},{"id":827,"name":"Dafeng, CNDFG","country":"China","continent":"AS","coordinates":null},{"id":828,"name":"Dalian Zhoushuizi International Apt, CNDLC","country":"China","continent":"AS","coordinates":"38.92683 121.6133"},{"id":829,"name":"Fangcheng, CNFAN","country":"China","continent":"AS","coordinates":"21.54273 108.2795"},{"id":830,"name":"Foshan, CNFOS","country":"China","continent":"AS","coordinates":"22.99696 113.0719"},{"id":831,"name":"Fuzhou, CNFOC","country":"China","continent":"AS","coordinates":"26.04653 119.2983"},{"id":832,"name":"Gaolan, CNGLA","country":"China","continent":"AS","coordinates":null},{"id":833,"name":"Gaoming, CNGOM","country":"China","continent":"AS","coordinates":"22.88657 112.89805"},{"id":834,"name":"Gaoyao, CNGAY","country":"China","continent":"AS","coordinates":null},{"id":835,"name":"Haikou, CNHAK","country":"China","continent":"AS","coordinates":"20.03873 110.3205"},{"id":836,"name":"Haimen, CNHME","country":"China","continent":"AS","coordinates":"28.69153 121.4437"},{"id":837,"name":"Huadu, CNHDU","country":"China","continent":"AS","coordinates":"2324N 11313E"},{"id":838,"name":"Huangpu, CNHUA","country":"China","continent":"AS","coordinates":"23.09443 113.4319"},{"id":839,"name":"Huzhou, CNHZH","country":"China","continent":"AS","coordinates":null},{"id":840,"name":"Jiangmen, CNJMN","country":"China","continent":"AS","coordinates":"22.60153 113.1121"},{"id":841,"name":"Jiangyin - Jiangsu, CNJIA","country":"China","continent":"AS","coordinates":"31.91133 120.2031"},{"id":842,"name":"Jiaxing, CNJAX","country":"China","continent":"AS","coordinates":null}],"links":{"first":"http:\/\/apitest.cargofive.com\/api\/ports?page=1","last":"http:\/\/apitest.cargofive.com\/api\/ports?page=25","prev":null,"next":"http:\/\/apitest.cargofive.com\/api\/ports?page=2"},"meta":{"current_page":1,"from":1,"last_page":25,"path":"http:\/\/apitest.cargofive.com\/api\/ports","per_page":100,"to":100,"total":2425}}